<?xml version="1.0"?>
<robot xmlns:xacro="http://www.ros.org/wiki/xacro" name="wsg_50_standalone">

  <!-- Constants for robot dimensions -->
  <xacro:property name="PI" value="3.1415926535897931"/>
  <xacro:include filename="$(find wsg_50_description)/model/wsg_50.urdf.xacro"/>

  <!-- Used for fixing robot to Gazebo 'base_link' -->
  <link name="world"/>
  <!--spawn WSG 50 LSR-->
  <xacro:wsg_50 parent="world" name="k1_wsg_50" custom="1" xyz="0.0 -2.0 0" rpy="0 0 0"/>
  <!--spawn WSG 50 ORIGINAL-->
  <xacro:wsg_50 parent="world" name="k2_wsg_50" custom="0" xyz="0.0 -1.0 0" rpy="0 0 ${PI}"/>
</robot>
