<?xml version="1.0"?>
<robot name="lsr_lwr_robot" xmlns:xacro="http://www.ros.org/wiki/xacro">

  <xacro:macro name="wsg_50_transmission" params="prefix">

   <transmission name="${prefix}wsg_50_base_trans_left">
    <type>transmission_interface/SimpleTransmission</type>
    <joint name="${prefix}wsg_50_base_joint_gripper_left">
   	  <hardwareInterface>hardware_interface/VelocityJointInterface</hardwareInterface>
    </joint>
    <actuator name="${prefix}wsg_50_base_motor_left">
      <hardwareInterface>hardware_interface/EffortJointInterface</hardwareInterface>
   	  <hardwareInterface>hardware_interface/VelocityJointInterface</hardwareInterface>
      <mechanicalReduction>1</mechanicalReduction>
    </actuator>
  </transmission>

  <transmission name="${prefix}wsg_50_base_trans_right">
    <type>transmission_interface/SimpleTransmission</type>
    <joint name="${prefix}wsg_50_base_joint_gripper_right">
   	  <hardwareInterface>hardware_interface/VelocityJointInterface</hardwareInterface>
    </joint>
    <actuator name="${prefix}wsg_50_base_motor_right">
      <hardwareInterface>hardware_interface/EffortJointInterface</hardwareInterface>
	  <hardwareInterface>hardware_interface/VelocityJointInterface</hardwareInterface>
	  <motorTorqueConstant>1</motorTorqueConstant>
      <mechanicalReduction>1</mechanicalReduction>
    </actuator>
  </transmission>

 </xacro:macro>
</robot>



