<?xml version="1.0"?>
<robot  xmlns:sensor="http://playerstage.sourceforge.net/gazebo/xmlschema/#sensor"
	xmlns:controller="http://playerstage.sourceforge.net/gazebo/xmlschema/#controller"
	xmlns:interface="http://playerstage.sourceforge.net/gazebo/xmlschema/#interface"
    xmlns:xacro="http://www.ros.org/wiki/xacro"
	name="wsg_50">

  <!-- Imports Transmissions -->
  <xacro:include filename="$(find wsg_50_description)/model/wsg_50.transmission.xacro" />
  <xacro:include filename="$(find wsg_50_description)/model/wsg_50.gazebo.xacro" />
  <xacro:include filename="$(find wsg_50_description)/model/wsg_50.components.xacro" />

  <!-- define macor input parameters-->
  <xacro:macro name="wsg_50" params="prefix:='' parent:='' xyz:='0 0 0' rpy:='0 0 0' finger_type:=''">
   <xacro:unless value="${not parent}">
     <joint name="${parent}_${prefix}wsg_50_attach_joint" type="fixed">
      <parent link="${parent}"/>
      <child link="${prefix}wsg_50_base_link"/>
      <origin rpy="${rpy}" xyz="${xyz}"/>
   </joint>
  </xacro:unless>

  <!-- BASE LINK -->
  <link name="${prefix}wsg_50_base_link">
    <xacro:insert_block name="wsg_50_base"/>
  </link>

  <!-- GRIPPER LEFT -->
  <joint name="${prefix}wsg_50_base_joint_gripper_left" type="prismatic">
     <limit lower="-0.055" upper="-0.0027" effort="1.0" velocity="1.0"/>
     <origin xyz="0 0 0" rpy="0 0 0" />
     <parent link="${prefix}wsg_50_base_link"/>
     <child link="${prefix}wsg_50_gripper_left" />
     <dynamics friction="0.1" damping="20"/>
     <axis xyz="1 0 0"/>
     <limit effort="100" velocity="100"/>
  </joint>

  <link name="${prefix}wsg_50_gripper_left">
     <xacro:insert_block name="wsg_50_gripper"/>
  </link>

  <!-- GRIPPER RIGHT -->
  <joint name="${prefix}wsg_50_base_joint_gripper_right" type="prismatic">
     <limit lower="0.0027" upper="0.055" effort="1.0" velocity="1.0"/>
     <origin xyz="0 0 0" rpy="0 0 3.14159" />
     <parent link="${prefix}wsg_50_base_link"/>
     <child link="${prefix}wsg_50_gripper_right" />
     <axis xyz="-1 0 0"/>
     <dynamics friction="0.1" damping="20" />
     <limit effort="100" velocity="100"/>
  </joint>

  <link name="${prefix}wsg_50_gripper_right">
       <xacro:insert_block name="wsg_50_gripper"/>
  </link>

  <!-- LEFT FINGER -->
  <joint name="${prefix}wsg_50_guide_joint_finger_left" type="fixed">
     <xacro:if value="${finger_type == ''}">
       <origin xyz="0 0 0.023" rpy="0 0 0" />
    </xacro:if>
    <xacro:if value="${finger_type == 'lsr'}">
       <origin xyz="${-finger_width/2} 0 ${palm_height}" rpy="0 0 0"/>
    </xacro:if>
    <xacro:if value="${finger_type == 'dsa'}">
       <origin xyz="${-finger_width/2} 0 ${palm_height}" rpy="0 0 0"/>
    </xacro:if>
     <parent link="${prefix}wsg_50_gripper_left"/>
     <child link="${prefix}wsg_50_finger_left" />
     <axis xyz="1 0 0"/>
  </joint>

  <link name="${prefix}wsg_50_finger_left">
    <xacro:if value="${finger_type == ''}">
      <xacro:insert_block name="wsg_50_finger_detail"/>
    </xacro:if>
    <xacro:if value="${finger_type == 'lsr'}">
       <xacro:insert_block name="wsg_50_finger_lsr_flat"/>
    </xacro:if>
    <xacro:if value="${finger_type == 'dsa'}">
       <xacro:insert_block name="wsg_50_finger_DSA"/>
    </xacro:if>
  </link>

  <!-- RIGHT FINGER -->
  <joint name="${prefix}wsg_50_guide_joint_finger_right" type="fixed">
     <xacro:if value="${finger_type == ''}">
       <origin xyz="0 0 0.023" rpy="0 0 0" />
    </xacro:if>
    <xacro:if value="${finger_type == 'lsr'}">
       <origin xyz="${-finger_width/2} 0 ${palm_height}" rpy="0 0 0"/>
    </xacro:if>
    <xacro:if value="${finger_type == 'dsa'}">
       <origin xyz="${-finger_width/2} 0 ${palm_height}" rpy="0 0 0"/>
    </xacro:if>
    <parent link="${prefix}wsg_50_gripper_right"/>
     <child link="${prefix}wsg_50_finger_right" />
     <axis xyz="1 0 0"/>
  </joint>

  <link name="${prefix}wsg_50_finger_right">
    <xacro:if value="${finger_type == ''}">
	  <xacro:insert_block name="wsg_50_finger_detail"/>
    </xacro:if>
    <xacro:if value="${finger_type == 'lsr'}">
       <xacro:insert_block name="wsg_50_finger_lsr_flat"/>
    </xacro:if>
    <xacro:if value="${finger_type == 'dsa'}">
       <xacro:insert_block name="wsg_50_finger_DSA"/>
    </xacro:if>
 </link>

  <!-- TCP dummy link -->
  <joint name="${prefix}wsg_50_dummy_tcp" type="fixed">
   <xacro:unless value="${finger_type == 'dsa'}">
       <origin xyz="0 0 0.113" rpy="0 0 0" />
   </xacro:unless>
   <xacro:if value="${finger_type == 'dsa'}">
      <origin xyz="0 0 0.132" rpy="0 0 0" />
   </xacro:if>
    <parent link="${prefix}wsg_50_base_link"/>
     <child link="${prefix}wsg_50_tcp" />
  </joint>

  <link name="${prefix}wsg_50_tcp"/>

  <xacro:wsg_50_gazebo prefix="${prefix}"/>
  <xacro:wsg_50_transmission prefix="${prefix}"/>
</xacro:macro>
</robot>

